app-version
arrow==0.10.0
click==6.7
django==4.2
django-appconf==1.0.5
django-modelqueryform==3.0
django-rq==2.6.0
gunicorn==20.0.4
numpy==1.18.2
pandas==1.0.3
patsy==0.5.1
python-dateutil==2.8.1
pytz==2022.4
redis==3.5.3
rq==1.11.1
scipy==1.4.1
six
statsmodels==0.11.1
tolerance
django-cleanup==5.2.0
rq-scheduler==0.11.0
django-rq-scheduler==2022.11
xmlsec
isodate
defusedxml
python3-saml
django-registration-redux==2.9
pyjwt==1.7.1
djangorestframework==3.14.0
djangorestframework-simplejwt==5.2.2
sqlparse
django-two-factor-auth==1.15.2
phonenumbers==8.13.11
